{
  "recherche": "accident travail",
  "chamber": "soc",
  "resultats": {
    "page": 1,
    "page_size": 10,
    "query": {
      "query": "accident travail",
      "page": 1,
      "pageSize": "10",
      "chamber": [
        "soc"
      ],
      "field": [],
      "type": [],
      "theme": [],
      "formation": [],
      "jurisdiction": [],
      "location": [],
      "publication": [],
      "solution": []
    },
    "total": 108874,
    "previous_page": "query=accident+travail&page=0&pageSize=10&chamber=soc",
    "next_page": "query=accident+travail&page=2&pageSize=10&chamber=soc",
    "took": 119,
    "max_score": 2101.5708,
    "results": [
      {
        "score": 0.9901863882006736,
        "highlights": {
          "text": [
            "est inapplicable lorsque le salarié a été victime d'un <em>accident</em> de trajet, et non d'un <em>accident</em> de <em>travail</em>",
            "de trajet, et non d'un <em>accident</em> du <em>travail</em>, la cour d'appel a privé sa décision de base légale au regard",
            "l'ensemble des règles particulières aux salariés victimes d'un <em>accident</em> du <em>travail</em> ou d'une maladie",
            "prononcé par l'employeur au cours de la suspension du contrat de <em>travail</em> provoquée par un <em>accident</em> du",
            "en arrêt de <em>travail</em> à partir du 20 octobre 1989, suite à <em>l'accident</em> du <em>travail</em> dont il avait été victime"
          ]
        },
        "id": "6079b1799ba5988459c524b9",
        "jurisdiction": "cc",
        "chamber": "soc",
        "number": "94-42.971",
        "numbers": [
          "94-42.971"
        ],
        "publication": [
          "b"
        ],
        "decision_date": "1996-10-22",
        "solution": "cassation",
        "type": "arret",
        "summary": "Aucune faute grave n'étant retenue à l'encontre d'un salarié, licencié, en l'absence de visite de reprise du travail par le médecin du Travail, au cours de la période de suspension du contrat de travail consécutive à un accident du travail, l'employeur qui l'a licencié à tort sans préavis, se trouve débiteur envers lui d'une indemnité compensatrice de préavis dont il est tenu de lui verser le montant intégral pour toute la durée où il aurait dû l'exécuter, nonobstant la suspension du contrat au cours de cette période, l'inexécution du préavis n'ayant pas pour cause cette suspension du contrat de travail, mais la décision de l'employeur de le priver du délai-congé.",
        "themes": [
          "contrat de travail, rupture",
          "licenciement",
          "cause",
          "accident du travail ou maladie professionnelle",
          "suspension du contrat",
          "licenciement pendant la période de suspension",
          "absence de délai",
          "congé",
          "défaut imputable à l'employeur",
          "indemnité de préavis",
          "nécessité",
          "contrat de travail, execution",
          "maladie du salarié",
          "indemnité conventionnelle de licenciement",
          "possibilité",
          "indemnité spéciale de licenciement (non)"
        ],
        "files": [],
        "titlesAndSummaries": [],
        "particularInterest": false
      },
      {
        "score": 0.9899092145741653,
        "highlights": {
          "text": [
            "AYANT ETE PRIS EN CHARGE AU TITRE DE LA LEGISLATION SUR LES <em>ACCIDENTS</em> DU <em>TRAVAIL</em> PAR LA CAISSE, LA SOCIETE",
            "DU <em>TRAVAIL</em>; QU'IL EST FAIT GRIEF A L'ARRET ATTAQUE D'AVOIR REJETE CE RECOURS AU… MOTIFS NOTAMMENT QU'IL",
            "DU <em>TRAVAIL</em> SONT CALCULEES EN FONCTION DES DEPENSES OCCASIONNEES PAR LES <em>ACCIDENTS</em> ANTERIEURS, L'ARTICLE",
            "DU <em>TRAVAIL</em>, BASE SUR LE RISQUE PROPRE, NE DOIT FIGURER AU DEBIT DU COMPTE DE L'EMPLOYEUR QUE LE MONTANT",
            "A SON COMPTE, POUR LE CALCUL DE SES COTISATIONS <em>ACCIDENTS</em> DU <em>TRAVAIL</em>, LES PRESTATIONS AFFERENTES A <em>L'ACCIDENT</em>"
          ]
        },
        "id": "6079b0b79ba5988459c4fa82",
        "jurisdiction": "cc",
        "chamber": "soc",
        "number": "78-14.366",
        "numbers": [
          "78-14.366"
        ],
        "publication": [
          "b"
        ],
        "decision_date": "1979-10-04",
        "solution": "rejet",
        "type": "arret",
        "summary": "S'il est exact que, pour le calcul du taux de cotisations d'accident du travail, basé sur le risque propre, ne doit figurer au débit du compte de l'employeur que le montant des prestations à la charge des caisses primaires à l'exclusion de celles que ces organismes sociaux sont admis à se faire rembourser, peu important qu'ils exercent ou non ce droit, notamment lorsque l'accident est dû à une faute intentionnelle d'un préposé de l'employeur, toute contestation à ce sujet est de la compétence des juridictions du contentieux technique, les juridictions du contentieux général étant, en revanche, compétentes pour se prononcer sur les litiges concernant le caractère professionnel de l'accident ou son imputabilité éventuelle à la faute d'un tiers. Justifie donc légalement sa décision la Cour d'appel qui, ayant noté qu'un employeur avait seulement contesté devant elle le droit pour la caisse d'imputer à son compte pour le calcul de ses cotisations accident du travail les prestations afférentes à un accident dû à la faute intentionnelle d'un camarade de travail, sans demander au préalable qu'il soit statué sur la responsabilité éventuelle de son préposé, non appelé en la cause, estime que, limité à une question de calcul des cotisations, le litige n'était pas de sa compétence.",
        "themes": [
          "securite sociale contentieux",
          "contentieux spéciaux",
          "contentieux technique",
          "commission nationale technique",
          "compétence",
          "accident du travail",
          "cotisations",
          "taux",
          "taux individuel",
          "accidents pris en considération",
          "accident dû à la faute intentionnelle d'un préposé",
          "securite sociale accidents du travail",
          "faute intentionnelle d'un préposé de l'employeur",
          "détermination",
          "action de l'employeur",
          "contentieux général",
          "compétence matérielle",
          "contestation sur le caractère professionnel de l'accident",
          "responsabilité d'un tiers"
        ],
        "files": [],
        "titlesAndSummaries": [],
        "particularInterest": false
      },
      {
        "score": 0.9892448067892835,
        "highlights": {
          "text": [
            "d'un salarié victime d'un <em>accident</em> du <em>travail</em>, l'employeur ne peut résilier ce contrat que s'il justifie",
            "et refusé d'établir une déclaration <em>d'accident</em> du <em>travail</em>, le salarié a rédigé lui-même cette déclaration",
            "au titre des <em>accidents</em> du <em>travail</em> le 18 juin 1982 ; que le 20 mai 1981, alors que M",
            "du <em>travail</em>, M",
            "du <em>travail</em>, ne mettait pas la société dans l'impossibilité de maintenir le contrat de <em>travail</em> pour un"
          ]
        },
        "id": "6079b10c9ba5988459c5111c",
        "jurisdiction": "cc",
        "chamber": "soc",
        "number": "84-45.838",
        "numbers": [
          "84-45.838"
        ],
        "publication": [
          "b"
        ],
        "decision_date": "1987-07-16",
        "solution": "cassation",
        "type": "arret",
        "summary": "Ayant retenu que la déclaration d'accident du travail faite par le salarié ne constituait pas une faute grave, et que ce comportement, découlant du refus de l'employeur de déclarer l'accident du travail, ne mettait pas la société dans l'impossibilité de maintenir le contrat pour un motif inhérent au fonctionnement de l'entreprise indépendant de l'accident du travail, la décision qui déboute le salarié de sa demande d'indemnité fondée sur l'article L. 122-32-2 du Code du travail viole ce texte.",
        "themes": [
          "contrat de travail, rupture",
          "licenciement",
          "cause",
          "accident du travail ou maladie professionnelle",
          "motif inhérent au fonctionnement de l'entreprise",
          "nécessité",
          "faute du salarié",
          "gravité",
          "refus de l'employeur de déclarer un accident du travail",
          "déclaration faite par le salarié"
        ],
        "files": [],
        "titlesAndSummaries": [],
        "particularInterest": false
      },
      {
        "score": 0.9890765041082604,
        "highlights": {
          "text": [
            "sa cotisation <em>d'accident</em> du <em>travail</em>, la tarification est définitive à son égard et ne peut plus être",
            "du <em>travail</em> ; qu'en considérant néanmoins que le taux <em>accident</em> du <em>travail</em> de la société ne serait pas",
            "devenu définitif au motif inopérant que la notification concernerait le taux \" <em>accident</em> du <em>travail</em>",
            "du <em>travail</em> ; qu'en conséquence, le taux des cotisations <em>accident</em> du <em>travail</em> déplafonnées ne bénéficie",
            "qu'en statuant ainsi alors que les cotisations <em>accident</em> du <em>travail</em> déplafonnées ne rentrent plus dans"
          ]
        },
        "id": "6079b1a79ba5988459c52e6f",
        "jurisdiction": "cc",
        "chamber": "soc",
        "number": "00-16.085",
        "numbers": [
          "00-16.085"
        ],
        "publication": [
          "b"
        ],
        "decision_date": "2002-04-11",
        "solution": "rejet",
        "type": "arret",
        "summary": "La loi n° 90-86 du 23 janvier 1990, qui a modifié l'article L. 241-5 du Code de la sécurité sociale en supprimant le plafonnement de l'assiette des cotisations accidents du travail, n'a pas abrogé l'article 1er de l'arrêté du 26 mars 1987 qui prévoit que les taux de cotisations de sécurité sociale dues par les agences ou entreprises de presse au titre de l'emploi des journalistes professionnels et assimilés sont calculés en appliquant au taux du régime général un abattement de 20 % ; il en résulte que le taux réduit s'applique à la totalité de la rémunération.",
        "themes": [
          "securite sociale, accident du travail",
          "cotisations",
          "taux",
          "fixation",
          "journaliste professionnel",
          "taux réduit",
          "domaine d'application",
          "loi du 23 janvier 1990",
          "portée",
          "presse",
          "journal",
          "sécurité sociale",
          "accident du travail"
        ],
        "files": [],
        "titlesAndSummaries": [],
        "particularInterest": false
      },
      {
        "score": 0.9885367649759884,
        "highlights": {
          "text": [
            "ETAIT UN <em>ACCIDENT</em> DU <em>TRAVAIL</em>, A L'ARRET DU 19 FEVRIER 1968, AUQUEL LA CAISSE MUTUELLE DE REASSURANCES",
            "ETAIT UN <em>ACCIDENT</em> DU <em>TRAVAIL</em> AU SENS DE L'ARTICLE 1151 DU CODE RURAL\nQU'IL NE SAURAIT DES LORS ETRE",
            "CONSIDERE PRECEDEMMENT COMME UN <em>ACCIDENT</em> DU <em>TRAVAIL</em>, DANS UN LITIGE REPOSANT SUR L'APPLICATION D'UN",
            "AVAIT ETE VICTIME D'UN <em>ACCIDENT</em> DU <em>TRAVAIL</em> DONT LES CONSEQUENCES ETAIENT A LA CHARGE DE …",
            "DU <em>TRAVAIL</em> LES <em>ACCIDENTS</em> OCCASIONNES PAR L'EMPLOI DE MACHINES AGRICOLES DONT SONT VICTIMES LES PERSONNES"
          ]
        },
        "id": "6079b2029ba5988459c5516f",
        "jurisdiction": "cc",
        "chamber": "soc",
        "number": "70-13.703",
        "numbers": [
          "70-13.703"
        ],
        "publication": [
          "b"
        ],
        "decision_date": "1972-05-16",
        "solution": "rejet",
        "type": "arret",
        "summary": "UNE PARTIE N'EST PAS RECEVABLE A SOUTENIR DEVANT LA COUR DE CASSATION UN MOYEN CONTRAIRE AUX CONCLUSIONS QU'ELLE AVAIT PRISES DEVANT LES JUGES DU FOND.",
        "themes": [
          "1) cassation",
          "moyen",
          "moyen contraire aux conclusions prises devant les juges du fond",
          "2) assurance responsabilite",
          "garantie",
          "etendue",
          "agriculture",
          "qualite du tiers",
          "victime au service d'une machine mue par un moteur inanime",
          "accident du travail",
          "loi forfaitaire",
          "caractere exclusif",
          "victime blessee au service d'une machine mue par un moteur inanime"
        ],
        "files": [],
        "titlesAndSummaries": [],
        "particularInterest": false
      },
      {
        "score": 0.9883667017071232,
        "highlights": {
          "text": [
            "rechute de <em>l'accident</em> du <em>travail</em> initial ; que la Caisse des congés payés ayant refusé de lui régler",
            "de <em>travail</em> effectif, peu important à cet égard que <em>l'accident</em> du <em>travail</em> initial ait ou non donné lieu",
            "procédait directement de <em>l'accident</em> du <em>travail</em> du 4 novembre 1994, qui n'avait quant à lui, donné lieu",
            "des arrêts de <em>travail</em> n'étant pas immédiatement consécutifs à un <em>accident</em> du <em>travail</em>, la Caisse des",
            "supérieur à un an du fait de <em>l'accident</em> du <em>travail</em>, a légalement justifié sa décision ; que le moyen"
          ]
        },
        "id": "6079b1ab9ba5988459c53030",
        "jurisdiction": "cc",
        "chamber": "soc",
        "number": "99-45.911",
        "numbers": [
          "99-45.911"
        ],
        "publication": [
          "b"
        ],
        "decision_date": "2001-12-04",
        "solution": "rejet",
        "type": "arret",
        "summary": "Il résulte de l'article L. 223-4 du Code du travail que les périodes pendant lesquelles l'exécution du contrat de travail est suspendue pour cause d'accident du travail ou de maladie professionnelle sont considérées comme périodes de travail effectif pour la détermination de la durée du congé dans la limite d'un an.",
        "themes": [
          "travail reglementation",
          "congés payés",
          "durée",
          "détermination",
          "travail effectif",
          "assimilations légales",
          "portée"
        ],
        "files": [],
        "titlesAndSummaries": [],
        "particularInterest": false
      },
      {
        "score": 0.9883161680777065,
        "highlights": {
          "text": [
            "SUR LE MOYEN UNIQUE : ATTENDU QUE, VICTIME D'UN <em>ACCIDENT</em> DU <em>TRAVAIL</em> LE 19 AOUT 1972, RICHER, OUVRIER",
            "DU <em>TRAVAIL</em> BASEE SUR UNE INCAPACITE DE 15 % EN RAISON DE SON ETAT ANTERIEUR, ALORS QUE, LORSQU'UN <em>ACCIDENT</em>",
            "LA LEGISLATION DES <em>ACCIDENTS</em> DU <em>TRAVAIL</em>, QU'IL NE RESULTAIT NI DE L'ENQUETE NI DE L'E…PERTISE MEDICALE",
            "INDEMNISEE EN SA TOTALITE AU TITRE DE <em>L'ACCIDENT</em> DU <em>TRAVAIL</em>, IL EN EST DIFFEREMMENT LORSQUE L'INVALIDITE",
            "CETTE EVOLUTION\nQU'APPRECIANT LA MESURE DE L'AGGRAVATION IMPUTABLE A <em>L'ACCIDENT</em> DU <em>TRAVAIL</em> ET"
          ]
        },
        "id": "6079b0d89ba5988459c504d3",
        "jurisdiction": "cc",
        "chamber": "soc",
        "number": "81-14.509",
        "numbers": [
          "81-14.509"
        ],
        "publication": [
          "b"
        ],
        "decision_date": "1982-07-20",
        "solution": "rejet",
        "type": "arret",
        "summary": "Si l'aggravation due uniquement à un accident du travail d'un état pathologique antérieur n'occasionnant auparavant aucune incapacité doit être indemnisée en sa totalité au titre accident du travail, il en est différemment d'une aggravation postérieure imputée pour partie à un accident du travail et pour partie à une autre cause notamment à l'évolution d'un état pathologique préexistant, tel que celui constitué par des troubles éthyliques annexes.",
        "themes": [
          "securite sociale accidents du travail",
          "invalidité",
          "appréciation",
          "etat morbide préexistant"
        ],
        "files": [],
        "titlesAndSummaries": [],
        "particularInterest": false
      },
      {
        "score": 0.9882855243325612,
        "highlights": {
          "text": [
            "DU <em>TRAVAIL</em>, QUELLE QU'EN SOIT LA CAUSE, <em>L'ACCIDENT</em> SURVENU PAR LE FAIT OU A L'OCCASION DU <em>TRAVAIL</em> A",
            "ENTRE LA RESIDENCE PRINCIPALE OU SECONDAIRE DU SALARIE ET LE LIEU DU <em>TRAVAIL</em>\nATTENDU QUE, SELON",
            "LA COUR D'APPEL A ESTIME QU'IL S'AGISSAIT NON PAS D'UN <em>ACCIDENT</em> DU <em>TRAVAIL</em> COMME LE SOUTENAIT LA CAISSE",
            "ENTRE SA RESIDENCE ET UN LIEU DE <em>TRAVAIL</em>, ET QUE, DES LORS, LOIN DE PRESENTER LE CARACTERE D'UN <em>ACCIDENT</em>",
            "DE TRAJET, <em>L'ACCIDENT</em> ETAIT SURVENU PAR LE FAIT OU A L'OCCASION DU <em>TRAVAIL</em>, LA COUR D'APPEL, QUI N'A"
          ]
        },
        "id": "6079b1fa9ba5988459c54bac",
        "jurisdiction": "cc",
        "chamber": "soc",
        "number": "69-10.635",
        "numbers": [
          "69-10.635"
        ],
        "publication": [
          "b"
        ],
        "decision_date": "1970-02-25",
        "solution": "cassation",
        "type": "arret",
        "summary": "N'est considéré comme un accident de trajet que l'accident survenu au cours du trajet habituellement effectué à l'aller ou au retour, entre la résidence principale ou secondaire du salarié et le lieu du travail. Par suite lorsqu'un inspecteur commercial dont l'activité s'étend sur plusieurs départements a été victime d'un accident au retour d'une mission, un tel accident, survenu au cours d'un déplacement professionnel constitue, non un accident de trajet, mais un accident du travail proprement dit.",
        "themes": [
          "securite sociale accidents du travail",
          "temps et lieu du travail",
          "accident de trajet",
          "distinction avec l'accident du travail",
          "définition",
          "salarié en mission",
          "retour à la résidence"
        ],
        "files": [],
        "titlesAndSummaries": [],
        "particularInterest": false
      },
      {
        "score": 0.9876536160475773,
        "highlights": {
          "text": [
            "constituait un <em>accident</em> du <em>travail</em> exclusif de recours de droit commun contre le responsable de <em>l'accident</em>",
            "litigieux était un <em>accident</em> de trajet, alors, selon le moyen, que constitue un <em>accident</em> du <em>travail</em> proprement",
            "a été victime un salarié transporté à la fin de son <em>travail</em>, dans le véhicule appartenant à l'entreprise",
            "et conduit par son employeur ; que le <em>travail</em> commençant le matin au siège et le transport jusqu'au",
            "l'employeur reconduisait ses employés de leur lieu de <em>travail</em> à leur domicile, pour leur rendre service"
          ]
        },
        "id": "6079b1709ba5988459c52198",
        "jurisdiction": "cc",
        "chamber": "soc",
        "number": "90-21.739",
        "numbers": [
          "90-21.739"
        ],
        "publication": [
          "b"
        ],
        "decision_date": "1994-02-17",
        "solution": "rejet",
        "type": "arret",
        "summary": "Constitue un accident de trajet tout accident dont est victime le travailleur à l'aller ou au retour entre le lieu où s'accomplit le travail et sa résidence, dans des conditions où il n'est pas encore ou n'est plus soumis aux instructions de l'employeur.\n Tel est le cas de l'accident de circulation dont sont victimes les salariés qui, en l'absence de transport en commun, ont accepté l'offre de l'employeur de les raccompagner, dans sa camionnette, du lieu du chantier où ils sont employés à leur domicile.",
        "themes": [
          "securite sociale, accident du travail",
          "temps et lieu du travail",
          "accident de trajet",
          "distinction avec l'accident du travail",
          "accident survenu en dehors du temps et du lieu du travail",
          "trajet du lieu du travail à la résidence",
          "transport assuré par l'employeur"
        ],
        "files": [],
        "titlesAndSummaries": [],
        "particularInterest": false
      },
      {
        "score": 0.9874764628438879,
        "highlights": {
          "text": [
            "de l'entreprise, dès lors que cet <em>accident</em> est survenu en dehors des heures de <em>travail</em> et que le salari",
            "dont a été victime le salarié était nécessairement un <em>accident</em> du <em>travail</em>, puisque le salarié était",
            "tait survenu en dehors des heures de <em>travail</em>, la cour d'appel a privé sa décision de base légale au",
            "survenu au salarié était un <em>accident</em> du <em>travail</em> ; que le moyen n'est pas fond\nSur le second moyen",
            "que le salarié déclaré inapte à son emploi par le médecin du <em>Travail</em> à la suite d'un <em>accident</em> du <em>travail</em>"
          ]
        },
        "id": "6079b1829ba5988459c5264b",
        "jurisdiction": "cc",
        "chamber": "soc",
        "number": "93-45.451",
        "numbers": [
          "93-45.451"
        ],
        "publication": [
          "b"
        ],
        "decision_date": "1996-12-04",
        "solution": "rejet",
        "type": "arret",
        "summary": "Constitue un accident du travail l'accident subi par un salarié qui se produit lors d'un déplacement professionnel, sur le trajet de retour d'un chantier au siège de l'entreprise dans un véhicule de l'employeur avant qu'il ne reprenne son véhicule personnel pour regagner son domicile et qui se trouve donc encore placé dans un état de subordination à l'égard de son employeur.",
        "themes": [
          "securite sociale, accident du travail",
          "temps et lieu du travail",
          "accident de trajet",
          "distinction avec l'accident du travail",
          "accident survenu en dehors du lieu du travail",
          "trajet du lieu du travail au siège de l'entreprise",
          "transport assuré par l'employeur",
          "contrat de travail, rupture",
          "licenciement",
          "cause",
          "accident du travail ou maladie professionnelle",
          "suspension du contrat",
          "licenciement à l'issue de la période de suspension",
          "délai",
          "congé",
          "indemnité compensatrice prévue à l'article l. 122",
          "32",
          "6 du code du travail",
          "inaptitude physique du salarié",
          "impossibilité de reclassement",
          "indemnité compensatrice",
          "attribution",
          "contrat de travail, execution",
          "maladie du salarié",
          "inaptitude au travail",
          "indemnités"
        ],
        "files": [],
        "titlesAndSummaries": [],
        "particularInterest": false
      }
    ],
    "relaxed": false,
    "searchQuery": "{\"index\":\"judilibre_0\",\"preference\":\"preventbouncingresults\",\"explain\":false,\"from\":10,\"size\":10,\"_source\":true,\"body\":{\"track_scores\":true,\"query\":{\"function_score\":{\"query\":{\"bool\":{\"filter\":[{\"terms\":{\"chamber\":[\"soc\"]}},{\"terms\":{\"jurisdiction\":[\"cc\"]}}],\"must\":{\"simple_query_string\":{\"query\":\"accident travail\",\"fields\":[\"text\"],\"default_operator\":\"OR\",\"auto_generate_synonyms_phrase_query\":true,\"fuzzy_max_expansions\":50,\"fuzzy_transpositions\":true}}}},\"boost\":5,\"functions\":[{\"filter\":{\"match\":{\"publication\":\"b\"}},\"weight\":50},{\"filter\":{\"match\":{\"publication\":\"r\"}},\"weight\":10},{\"filter\":{\"match\":{\"publication\":\"c\"}},\"weight\":5},{\"filter\":{\"match\":{\"publication\":\"l\"}},\"weight\":2},{\"filter\":{\"match\":{\"publication\":\"n\"}},\"weight\":0.1},{\"filter\":{\"match\":{\"lowInterest\":true}},\"weight\":0.1},{\"filter\":{\"match\":{\"jurisdiction\":\"ca\"}},\"weight\":0.1},{\"filter\":{\"match\":{\"jurisdiction\":\"tj\"}},\"weight\":0.1},{\"filter\":{\"match\":{\"jurisdiction\":\"tcom\"}},\"weight\":0.1}],\"score_mode\":\"max\",\"boost_mode\":\"multiply\"}},\"sort\":[{\"_score\":\"desc\"},{\"decision_date\":\"desc\"}],\"highlight\":{\"fields\":{\"text\":{}}}}}",
    "date": "2026-07-10T15:33:02.299Z"
  }
}